<svg xmlns="http://www.w3.org/2000/svg" width="25" height="45" viewBox="0 0 25 45">
  <defs>
    <style>
      .a {
        fill: #98a2ae;
      }
    </style>
  </defs>
  <title>arrow-right</title>
  <path class="a" d="M2.5,45a2.6,2.6,0,0,1-1.8-.7,2.7,2.7,0,0,1,0-3.6L19,22.5.7,4.3A2.7,2.7,0,0,1,.7.7,2.7,2.7,0,0,1,4.3.7l20,20a2.7,2.7,0,0,1,0,3.6l-20,20A2.6,2.6,0,0,1,2.5,45Z"/>
</svg>
