<?xml version="1.0" encoding="utf-16"?>
<!-- Generator: Adobe Illustrator 18.0.0, SVG Export Plug-In . SVG Version: 6.00 Build 0)  -->
<!DOCTYPE svg PUBLIC "-//W3C//DTD SVG 1.1//EN" "http://www.w3.org/Graphics/SVG/1.1/DTD/svg11.dtd">
<svg version="1.1" id="Layer_1" xmlns="http://www.w3.org/2000/svg" xmlns:xlink="http://www.w3.org/1999/xlink" x="0px" y="0px"
	 viewBox="0 0 12 8.4" enable-background="new 0 0 12 8.4" xml:space="preserve">
<g>
	<defs>
		<rect id="SVGID_1_" x="-291.3" y="-193.7" width="841.9" height="595.3"/>
	</defs>
	<clipPath id="SVGID_2_">
		<use xlink:href="#SVGID_1_"  overflow="visible"/>
	</clipPath>
	
		<polyline clip-path="url(#SVGID_2_)" fill="none" stroke="#98A2AE" stroke-width="1.364" stroke-linecap="round" stroke-miterlimit="10" points="
		2.2,6 6,2.2 9.8,6 	"/>
</g>
</svg>
